C
B+
B+
D+
A
B+
A
D+
B+
B+
B+
B+
A
D+
C-
A
A
B-
B+
C
A
B
B+
D+
B+
B+
B+
B+
D+
A
F
B+
B+
F
B+
B+
B+
B-
C
B+
B-
B+
B-
B+
C
D+
B-
D+
B+
B+
B+
D+
D+
B+
B+
C+
B+
B+
B+
C+
C+
A
A
D+
D-
A
A
A
D-
F
B+
C
C
B+
A
A
D+
D-
A
D+
B+
B+
B+
B+
C-
A
B-
A
B+
C+
B-
B-
A
B+
B+
C
F
A
B-
B+
B+
D+
A
B+
C
D+
D+
B+
D-
C+
D+
D+
B+
A-
D+
B+
B-
C+
B+
D+
A-
A
D+
B+
B+
A
B+
C
B+
D+
D+
D+
B+
A
B+
D+
B+
D+
B-
C+
B+
A-
A
B+
B-
B+
B+
B+
A
B+
B+
B-
D+
A
C
B
F
B-
B+
D+
B+
B+
C-
A
B+
B+
B+
F
C+
B+
D+
A
C+
C+
C-
B-
A
B-
B-
B+
B+
D+
B+
D+
B+
A
B+
B-
B+
B+
B+
D+
B+
B+
B+
C
A
F
B-
B-
B+
A
C-
B+
B
D+
B+
D+
D+
F
B+
B+
B-
D+
D+
D+
B+
C-
B+
C
B+
B+
B+
B-
B+
C+
B+
D+
C
C+
A
B-
B+
D+
B+
B-
F
A
B+
B-
B+
C+
B+
B+
D+
B
B+
B-
A
A
