C+
D+
B+
A
B+
B+
D+
B+
B+
A
A-
B+
B+
B+
B+
B-
A
B+
B+
B+
B+
B+
F
A
D+
B+
B+
A-
B+
B+
A
B+
B+
A-
C
F
A
B+
A
B+
A
B+
B+
A
B+
B+
B-
B+
A
B+
C
A
D+
B-
A-
B+
B+
B-
B+
C
A
B+
B+
B
A
B+
A
B-
A
B+
B+
B
B+
B+
B+
B+
D+
B-
B-
B+
B+
A
B+
D+
A
A
B+
B+
B-
C
B+
B+
B+
C+
D+
B+
D+
B-
B+
A
A
B+
B+
A-
C
B+
B+
C+
B+
A
B+
B+
A
B+
B+
A
B-
C+
B+
B-
A
C+
C+
A
B+
A
A
B+
D+
A
B+
B
A
C
C-
B+
B+
B+
B+
B+
B+
A
B+
B+
A
B+
B-
A
A
B
A
B+
B+
B+
B+
B+
B+
B+
B+
A
A
B+
C-
D+
B+
A-
D+
B+
B+
B+
B+
B+
B+
D+
B+
A
A
B+
A
A
A
C+
D+
B+
B+
A
B+
B-
A
B+
B-
B+
B+
B+
B+
B
A
B-
A
D+
A
A
B+
B+
B+
B+
A
A-
B+
B-
B
D+
B+
B+
B
A
B+
C+
D+
B+
